{
  "entries": {
    "COMMON": {
      "1": {
        "cards": "2",
        "gold": "10",
        "level": "1"
      },
      "2": {
        "cards": "5",
        "gold": "25",
        "level": "2"
      },
      "3": {
        "cards": "10",
        "gold": "50",
        "level": "3"
      },
      "4": {
        "cards": "20",
        "gold": "150",
        "level": "4"
      },
      "5": {
        "cards": "45",
        "gold": "450",
        "level": "5"
      },
      "6": {
        "cards": "75",
        "gold": "750",
        "level": "6"
      },
      "7": {
        "cards": "150",
        "gold": "1500",
        "level": "7"
      },
      "8": {
        "cards": "300",
        "gold": "3000",
        "level": "8"
      },
      "9": {
        "cards": "500",
        "gold": "5000",
        "level": "9"
      },
      "10": {
        "cards": "725",
        "gold": "9700",
        "level": "10"
      },
      "11": {
        "cards": "975",
        "gold": "14200",
        "level": "11"
      },
      "12": {
        "cards": "1250",
        "gold": "20800",
        "level": "12"
      },
      "13": {
        "cards": "1550",
        "gold": "27100",
        "level": "13"
      },
      "14": {
        "cards": "1900",
        "gold": "36500",
        "level": "14"
      },
      "15": {
        "cards": "2300",
        "gold": "45300",
        "level": "15"
      },
      "16": {
        "cards": "2800",
        "gold": "54600",
        "level": "16"
      },
      "17": {
        "cards": "3500",
        "gold": "70000",
        "level": "17"
      },
      "18": {
        "cards": "4400",
        "gold": "90000",
        "level": "18"
      },
      "19": {
        "cards": "5400",
        "gold": "108000",
        "level": "19"
      },
      "20": {
        "cards": "6800",
        "gold": "136000",
        "level": "20"
      },
      "21": {
        "cards": "8500",
        "gold": "170000",
        "level": "21"
      },
      "22": {
        "cards": "10500",
        "gold": "210000",
        "level": "22"
      },
      "23": {
        "cards": "13000",
        "gold": "260000",
        "level": "23"
      },
      "24": {
        "cards": "16000",
        "gold": "320000",
        "level": "24"
      },
      "25": {
        "cards": "0",
        "gold": "0",
        "level": "25"
      }
    },
    "EPIC": {
      "1": {
        "cards": "0",
        "gold": "0",
        "level": "1"
      },
      "2": {
        "cards": "0",
        "gold": "0",
        "level": "2"
      },
      "3": {
        "cards": "0",
        "gold": "0",
        "level": "3"
      },
      "4": {
        "cards": "0",
        "gold": "0",
        "level": "4"
      },
      "5": {
        "cards": "2",
        "gold": "450",
        "level": "5"
      },
      "6": {
        "cards": "5",
        "gold": "750",
        "level": "6"
      },
      "7": {
        "cards": "10",
        "gold": "1500",
        "level": "7"
      },
      "8": {
        "cards": "20",
        "gold": "3000",
        "level": "8"
      },
      "9": {
        "cards": "30",
        "gold": "5000",
        "level": "9"
      },
      "10": {
        "cards": "45",
        "gold": "9700",
        "level": "10"
      },
      "11": {
        "cards": "70",
        "gold": "14200",
        "level": "11"
      },
      "12": {
        "cards": "105",
        "gold": "20800",
        "level": "12"
      },
      "13": {
        "cards": "155",
        "gold": "27100",
        "level": "13"
      },
      "14": {
        "cards": "220",
        "gold": "36500",
        "level": "14"
      },
      "15": {
        "cards": "300",
        "gold": "45300",
        "level": "15"
      },
      "16": {
        "cards": "390",
        "gold": "54600",
        "level": "16"
      },
      "17": {
        "cards": "490",
        "gold": "70000",
        "level": "17"
      },
      "18": {
        "cards": "600",
        "gold": "90000",
        "level": "18"
      },
      "19": {
        "cards": "720",
        "gold": "108000",
        "level": "19"
      },
      "20": {
        "cards": "900",
        "gold": "136000",
        "level": "20"
      },
      "21": {
        "cards": "1125",
        "gold": "170000",
        "level": "21"
      },
      "22": {
        "cards": "1375",
        "gold": "210000",
        "level": "22"
      },
      "23": {
        "cards": "1675",
        "gold": "260000",
        "level": "23"
      },
      "24": {
        "cards": "2000",
        "gold": "320000",
        "level": "24"
      },
      "25": {
        "cards": "0",
        "gold": "0",
        "level": "25"
      }
    },
    "RARE": {
      "1": {
        "cards": "0",
        "gold": "0",
        "level": "1"
      },
      "2": {
        "cards": "0",
        "gold": "0",
        "level": "2"
      },
      "3": {
        "cards": "2",
        "gold": "50",
        "level": "3"
      },
      "4": {
        "cards": "5",
        "gold": "150",
        "level": "4"
      },
      "5": {
        "cards": "10",
        "gold": "450",
        "level": "5"
      },
      "6": {
        "cards": "20",
        "gold": "750",
        "level": "6"
      },
      "7": {
        "cards": "45",
        "gold": "1500",
        "level": "7"
      },
      "8": {
        "cards": "75",
        "gold": "3000",
        "level": "8"
      },
      "9": {
        "cards": "125",
        "gold": "5000",
        "level": "9"
      },
      "10": {
        "cards": "190",
        "gold": "9700",
        "level": "10"
      },
      "11": {
        "cards": "300",
        "gold": "14200",
        "level": "11"
      },
      "12": {
        "cards": "450",
        "gold": "20800",
        "level": "12"
      },
      "13": {
        "cards": "630",
        "gold": "27100",
        "level": "13"
      },
      "14": {
        "cards": "825",
        "gold": "36500",
        "level": "14"
      },
      "15": {
        "cards": "1050",
        "gold": "45300",
        "level": "15"
      },
      "16": {
        "cards": "1300",
        "gold": "54600",
        "level": "16"
      },
      "17": {
        "cards": "1575",
        "gold": "70000",
        "level": "17"
      },
      "18": {
        "cards": "1875",
        "gold": "90000",
        "level": "18"
      },
      "19": {
        "cards": "2250",
        "gold": "108000",
        "level": "19"
      },
      "20": {
        "cards": "2700",
        "gold": "136000",
        "level": "20"
      },
      "21": {
        "cards": "3225",
        "gold": "170000",
        "level": "21"
      },
      "22": {
        "cards": "3800",
        "gold": "210000",
        "level": "22"
      },
      "23": {
        "cards": "4600",
        "gold": "260000",
        "level": "23"
      },
      "24": {
        "cards": "6000",
        "gold": "320000",
        "level": "24"
      },
      "25": {
        "cards": "0",
        "gold": "0",
        "level": "25"
      }
    }
  },
  "timestamp": 1665094174
}
